<svg width="36" height="33" viewBox="0 0 36 33" fill="none" xmlns="http://www.w3.org/2000/svg">
<path d="M31.0078 19.9687C30.2311 19.9687 29.6016 19.3392 29.6016 18.5625V12.1626C29.6016 9.55314 27.757 7.24541 25.2156 6.67532C24.4578 6.5053 23.9813 5.75317 24.1513 4.99534C24.3213 4.23758 25.0732 3.76121 25.8313 3.93102C27.6715 4.34382 29.3422 5.3822 30.5353 6.85482C31.7468 8.35002 32.4141 10.235 32.4141 12.1626V18.5625C32.4141 19.3392 31.7845 19.9687 31.0078 19.9687ZM6.32812 18.5625V12.1626C6.32812 9.55314 8.1727 7.24541 10.7141 6.67532C11.4719 6.5053 11.9484 5.75317 11.7784 4.99534C11.6084 4.23751 10.8561 3.761 10.0984 3.93102C8.2582 4.34382 6.58751 5.3822 5.39437 6.85482C4.18282 8.35002 3.51562 10.235 3.51562 12.1626V18.5625C3.51562 19.3392 4.1452 19.9687 4.92188 19.9687C5.69855 19.9687 6.32812 19.3392 6.32812 18.5625ZM19.4766 18.4219V14.1328C19.4766 13.3561 18.847 12.7265 18.0703 12.7265C17.2936 12.7265 16.6641 13.3561 16.6641 14.1328V18.4219C16.6641 19.1985 17.2936 19.8281 18.0703 19.8281C18.847 19.8281 19.4766 19.1985 19.4766 18.4219ZM23.1328 27.4922C23.1328 24.7007 20.8618 22.4297 18.0703 22.4297C15.2788 22.4297 13.0078 24.7007 13.0078 27.4922C13.0078 30.2837 15.2788 32.5547 18.0703 32.5547C20.8618 32.5547 23.1328 30.2837 23.1328 27.4922ZM20.3203 27.4922C20.3203 28.7328 19.311 29.7422 18.0703 29.7422C16.8296 29.7422 15.8203 28.7328 15.8203 27.4922C15.8203 26.2515 16.8296 25.2422 18.0703 25.2422C19.311 25.2422 20.3203 26.2515 20.3203 27.4922ZM36 27.4922C36 24.7007 33.729 22.4297 30.9375 22.4297C28.146 22.4297 25.875 24.7007 25.875 27.4922C25.875 30.2837 28.146 32.5547 30.9375 32.5547C33.729 32.5547 36 30.2837 36 27.4922ZM33.1875 27.4922C33.1875 28.7328 32.1782 29.7422 30.9375 29.7422C29.6968 29.7422 28.6875 28.7328 28.6875 27.4922C28.6875 26.2515 29.6968 25.2422 30.9375 25.2422C32.1782 25.2422 33.1875 26.2515 33.1875 27.4922ZM10.125 27.4922C10.125 24.7007 7.85398 22.4297 5.0625 22.4297C2.27102 22.4297 0 24.7007 0 27.4922C0 30.2837 2.27102 32.5547 5.0625 32.5547C7.85398 32.5547 10.125 30.2837 10.125 27.4922ZM7.3125 27.4922C7.3125 28.7328 6.30316 29.7422 5.0625 29.7422C3.82184 29.7422 2.8125 28.7328 2.8125 27.4922C2.8125 26.2515 3.82184 25.2422 5.0625 25.2422C6.30316 25.2422 7.3125 26.2515 7.3125 27.4922Z" fill="#C1A2EE"/>
<path d="M23.1328 5.0625C23.1328 2.27102 20.8618 0 18.0703 0C15.2788 0 13.0078 2.27102 13.0078 5.0625C13.0078 7.85398 15.2788 10.125 18.0703 10.125C20.8618 10.125 23.1328 7.85398 23.1328 5.0625ZM20.3203 5.0625C20.3203 6.30316 19.311 7.3125 18.0703 7.3125C16.8296 7.3125 15.8203 6.30316 15.8203 5.0625C15.8203 3.82184 16.8296 2.8125 18.0703 2.8125C19.311 2.8125 20.3203 3.82184 20.3203 5.0625Z" fill="#FC2E6A"/>
</svg>
