<svg width="36" height="35" viewBox="0 0 36 35" fill="none" xmlns="http://www.w3.org/2000/svg">
<path d="M10.2656 28.9688H8.4375C3.78506 28.9688 0 25.1837 0 20.5312V8.4375C0 3.78506 3.78506 0 8.4375 0H27.5625C32.2149 0 36 3.78506 36 8.4375V19.8281C36 20.6048 35.3704 21.2344 34.5938 21.2344C33.8171 21.2344 33.1875 20.6048 33.1875 19.8281V8.4375C33.1875 5.33588 30.6641 2.8125 27.5625 2.8125H8.4375C5.33588 2.8125 2.8125 5.33588 2.8125 8.4375V20.5312C2.8125 23.6329 5.33588 26.1562 8.4375 26.1562H10.2656C11.0423 26.1562 11.6719 26.7858 11.6719 27.5625C11.6719 28.3392 11.0423 28.9688 10.2656 28.9688ZM34.2683 30.9431C35.3526 30.1913 36 28.9538 36 27.6328C36 26.3119 35.3526 25.0744 34.2683 24.3225C32.0053 22.7533 28.6023 20.8828 25.2422 20.8828C21.8821 20.8828 18.4791 22.7533 16.2161 24.3225C15.1317 25.0744 14.4844 26.3119 14.4844 27.6328C14.4844 28.9538 15.1317 30.1913 16.2161 30.9431C18.4791 32.5123 21.8821 34.3828 25.2422 34.3828C28.6023 34.3828 32.0053 32.5123 34.2683 30.9431ZM32.6656 26.6337C32.9973 26.8637 33.1875 27.2278 33.1875 27.6328C33.1875 28.0378 32.9973 28.4019 32.6656 28.6319C30.7324 29.9723 27.8752 31.5703 25.2422 31.5703C22.6092 31.5703 19.752 29.9723 17.8187 28.6319C17.4871 28.4019 17.2969 28.0378 17.2969 27.6328C17.2969 27.2278 17.4871 26.8637 17.8187 26.6337C19.752 25.2933 22.6092 23.6953 25.2422 23.6953C27.8752 23.6953 30.7324 25.2933 32.6656 26.6337ZM17.0174 25.4781H17.0181H17.0174Z" fill="#C1A2EE"/>
<path d="M28.9688 9.77344H7.03125C6.25458 9.77344 5.625 9.14386 5.625 8.36719C5.625 7.59052 6.25458 6.96094 7.03125 6.96094H28.9688C29.7454 6.96094 30.375 7.59052 30.375 8.36719C30.375 9.14386 29.7454 9.77344 28.9688 9.77344ZM30.375 13.9922C30.375 13.2155 29.7454 12.5859 28.9688 12.5859H7.03125C6.25458 12.5859 5.625 13.2155 5.625 13.9922C5.625 14.7689 6.25458 15.3984 7.03125 15.3984H28.9688C29.7454 15.3984 30.375 14.7689 30.375 13.9922ZM25.3125 29.3906C26.2833 29.3906 27.0703 28.6036 27.0703 27.6328C27.0703 26.662 26.2833 25.875 25.3125 25.875C24.3417 25.875 23.5547 26.662 23.5547 27.6328C23.5547 28.6036 24.3417 29.3906 25.3125 29.3906Z" fill="#FC2E6A"/>
</svg>
